858745 335447
578126 989955
227833 279570
115081 666879
858517 188667
675856 857747
439385 669932
945029 754305
424873 298110
232684 440085
793664 988230
174622 705115
757226 540609
935648 458106
104721 650513
764399 58355
169292 605440
487205 180832
187082 354695
458851 885880
770270 132933
379465 678879
961385 461564
893793 862665
829565 828097
989031 680284
470857 179382
465430 142515
279373 726295
946464 824490
989135 51988
216795 94395
818700 416273
745558 616698
755813 289647
292288 555412
600512 405873
283035 891032
268899 758042
456756 861215
322624 834946
383016 591276
45907 293341
195382 812541
157823 63787
13068 716716
702666 772387
211372 233312
616017 96409
53706 14920
776638 425331
443873 140140
319986 952526
804559 596510
346629 134713
33487 832360
571302 26269
58817 31103
874253 803932
410983 83962
819097 834034
839306 646144
479960 632326
821118 182940
510308 295535
258356 555173
804977 204447
625612 440773
813477 182811
987406 527147
718002 847664
654688 246871
339952 925224
360842 155550
423095 459579
794651 468807
590940 40205
642390 527047
939206 772259
722600 492255
29527 9162
775233 564150
270491 373751
134251 818185
334454 222699
347800 299251
303846 533927
148556 921246
91634 742995
707485 358342
718809 638002
959263 836330
137463 361946
457799 500646
440842 399127
8271 173309
897723 864373
76739 849524
904749 982210
121429 645968
224837 38251
669833 962488
578953 597323
105669 564913
972872 542985
124718 734369
73461 710178
193927 78650
769292 664945
916416 305625
161554 951950
203789 716796
430084 897310
763541 933247
976085 966192
648561 31378
45762 49802
562702 938338
126642 267381
225681 994718
141835 309356
650215 608876
141242 765165
729179 745993
736110 697345
195096 260804
219100 555257
531189 271803
961700 593558
274416 351261
805340 548198
708407 707917
835186 884617
989322 79149
956282 667282
394232 501169
284783 655744
111633 164480
889272 512987
938948 111210
884443 48053
594767 803099
411689 557507
205617 34474
858828 962977
568487 973558
480796 912414
702666 447672
773917 179590
668295 379195
164306 762024
152542 914185
50457 592662
549160 862240
550532 96274
207219 322739
221247 523474
667245 191066
722397 742594
227576 944092
470941 583280
900676 822426
93513 550160
398647 782441
381258 187826
844119 559767
129080 180992
788748 706521
706486 931357
624212 480645
65931 594675
639874 800458
352658 958625
19705 146013
173100 238516
621718 921755
358849 548859
168463 511339
37974 238440
875250 633235
758578 38600
515697 468963
921713 466164
570110 148655
31312 441412
348577 176212
963321 256792
18420 441995
90779 175551
230290 952027
931660 974059
267708 19894
29199 394702
991257 872004
796752 849628
1891 58949
668435 629506
421424 907106
606645 453329
888535 354114
336593 705164
783136 77247
394642 644470
892306 502258
185090 801310
304263 791760
